%YAML 1.1
%TAG !u! tag:unity3d.com,2011:
--- !u!221 &22100000
AnimatorOverrideController:
  m_ObjectHideFlags: 0
  m_PrefabParentObject: {fileID: 0}
  m_PrefabInternal: {fileID: 0}
  m_Name: Weapon_None
  m_Controller: {fileID: 9100000, guid: 1ac899c442cee694cb2003e6c25f7f1f, type: 2}
  m_Clips: []
